{
	"authHost": "http://gnumner.loc",
	"authEndpoint": "/broadcasting/auth",
	"clients": [
		{
			"appId": "dc552f93187ce51a",
			"key": "c4ac1c85655c9cb016a982b527982bd4"
		}
	],
	"database": "redis",
    "databaseConfig": {
        "redis": {
            "host": "127.0.0.1",
            "port": "6379"
        },
        "sqlite": {
            "databasePath": "/database/laravel-echo-server.sqlite"
        }
    },
	"devMode": true,
	"host": null,
	"port": "6002",
	"protocol": "http",
	"socketio": {},
	"secureOptions": 67108864,
	"sslCertPath": "",
	"sslKeyPath": "",
	"sslCertChainPath": "",
	"sslPassphrase": "",
	"subscribers": {
		"http": true,
		"redis": true
	},
	"apiOriginAllow": {
		"allowCors": false,
		"allowOrigin": "*",
		"allowMethods": "GET, POST",
		"allowHeaders": "Origin, Content-Type, X-Auth-Token, X-Requested-With, Accept, Authorization, X-CSRF-TOKEN, X-Socket-Id"
	}
}
